<?xml version="1.0" encoding="UTF-8" standalone="no"?>
<!-- Created with Inkscape (http://www.inkscape.org/) -->

<svg
   xmlns:dc="http://purl.org/dc/elements/1.1/"
   xmlns:cc="http://creativecommons.org/ns#"
   xmlns:rdf="http://www.w3.org/1999/02/22-rdf-syntax-ns#"
   xmlns:svg="http://www.w3.org/2000/svg"
   xmlns="http://www.w3.org/2000/svg"
   xmlns:xlink="http://www.w3.org/1999/xlink"
   xmlns:sodipodi="http://sodipodi.sourceforge.net/DTD/sodipodi-0.dtd"
   xmlns:inkscape="http://www.inkscape.org/namespaces/inkscape"
   width="512"
   height="512"
   viewBox="0 0 135.46666 135.46667"
   version="1.1"
   id="svg8"
   inkscape:version="0.92.2 (5c3e80d, 2017-08-06)"
   sodipodi:docname="sprite_atlas.svg"
   inkscape:export-filename="./sprite_atlas.png"
   inkscape:export-xdpi="96"
   inkscape:export-ydpi="96">
  <defs
     id="defs2">
    <linearGradient
       inkscape:collect="always"
       id="linearGradient1067">
      <stop
         style="stop-color:#6f8a91;stop-opacity:1"
         offset="0"
         id="stop1063" />
      <stop
         style="stop-color:#b7c4c8;stop-opacity:0"
         offset="1"
         id="stop1065" />
    </linearGradient>
    <linearGradient
       inkscape:collect="always"
       id="linearGradient900">
      <stop
         style="stop-color:#e9c6af;stop-opacity:1"
         offset="0"
         id="stop896" />
      <stop
         style="stop-color:#f2f2f2;stop-opacity:0;"
         offset="1"
         id="stop898" />
    </linearGradient>
    <radialGradient
       inkscape:collect="always"
       xlink:href="#linearGradient900"
       id="radialGradient912"
       gradientUnits="userSpaceOnUse"
       gradientTransform="matrix(3.7795275,0,0,5.4509518,0,-214.14132)"
       cx="115.77782"
       cy="130.04173"
       fx="115.77782"
       fy="130.04173"
       r="4.192791" />
    <radialGradient
       inkscape:collect="always"
       xlink:href="#linearGradient1067"
       id="radialGradient1073"
       gradientUnits="userSpaceOnUse"
       gradientTransform="matrix(7.5643045,0,0,7.3962092,-402.53473,-550.35783)"
       cx="106.71908"
       cy="153.0406"
       fx="106.71908"
       fy="153.0406"
       r="3.0067821" />
  </defs>
  <sodipodi:namedview
     id="base"
     pagecolor="#c29c00"
     bordercolor="#666666"
     borderopacity="1.0"
     inkscape:pageopacity="0"
     inkscape:pageshadow="2"
     inkscape:zoom="2.8284271"
     inkscape:cx="105.78477"
     inkscape:cy="284.35002"
     inkscape:document-units="px"
     inkscape:current-layer="layer2"
     showgrid="false"
     units="px"
     inkscape:window-width="1920"
     inkscape:window-height="977"
     inkscape:window-x="0"
     inkscape:window-y="28"
     inkscape:window-maximized="1"
     fit-margin-top="0"
     fit-margin-left="0"
     fit-margin-right="0"
     fit-margin-bottom="0" />
  <metadata
     id="metadata5">
    <rdf:RDF>
      <cc:Work
         rdf:about="">
        <dc:format>image/svg+xml</dc:format>
        <dc:type
           rdf:resource="http://purl.org/dc/dcmitype/StillImage" />
        <dc:title />
      </cc:Work>
    </rdf:RDF>
  </metadata>
  <g
     inkscape:label="grid"
     inkscape:groupmode="layer"
     id="layer1"
     style="display:none"
     transform="translate(0,-161.53331)"
     sodipodi:insensitive="true">
    <rect
       style="opacity:1;vector-effect:none;fill:#d3bc5f;fill-opacity:1;stroke:none;stroke-width:0.79374999;stroke-linecap:round;stroke-linejoin:round;stroke-miterlimit:4;stroke-dasharray:none;stroke-dashoffset:0;stroke-opacity:1"
       id="rect1094"
       width="15.240001"
       height="15.240001"
       x="0.84666669"
       y="280.91333" />
    <rect
       y="280.91333"
       x="17.780001"
       height="15.240001"
       width="15.240001"
       id="rect1096"
       style="opacity:1;vector-effect:none;fill:#a0892c;fill-opacity:1;stroke:none;stroke-width:0.79374999;stroke-linecap:round;stroke-linejoin:round;stroke-miterlimit:4;stroke-dasharray:none;stroke-dashoffset:0;stroke-opacity:1" />
    <rect
       y="280.91333"
       x="34.713337"
       height="15.240001"
       width="15.240001"
       id="rect1098"
       style="opacity:1;vector-effect:none;fill:#d3bc5f;fill-opacity:1;stroke:none;stroke-width:0.79374999;stroke-linecap:round;stroke-linejoin:round;stroke-miterlimit:4;stroke-dasharray:none;stroke-dashoffset:0;stroke-opacity:1" />
    <rect
       style="opacity:1;vector-effect:none;fill:#a0892c;fill-opacity:1;stroke:none;stroke-width:0.79374999;stroke-linecap:round;stroke-linejoin:round;stroke-miterlimit:4;stroke-dasharray:none;stroke-dashoffset:0;stroke-opacity:1"
       id="rect1100"
       width="15.240001"
       height="15.240001"
       x="51.646671"
       y="280.91333" />
    <rect
       y="280.91333"
       x="68.580002"
       height="15.240001"
       width="15.240001"
       id="rect1102"
       style="opacity:1;vector-effect:none;fill:#d3bc5f;fill-opacity:1;stroke:none;stroke-width:0.79374999;stroke-linecap:round;stroke-linejoin:round;stroke-miterlimit:4;stroke-dasharray:none;stroke-dashoffset:0;stroke-opacity:1" />
    <rect
       style="opacity:1;vector-effect:none;fill:#a0892c;fill-opacity:1;stroke:none;stroke-width:0.79374999;stroke-linecap:round;stroke-linejoin:round;stroke-miterlimit:4;stroke-dasharray:none;stroke-dashoffset:0;stroke-opacity:1"
       id="rect1104"
       width="15.240001"
       height="15.240001"
       x="85.513336"
       y="280.91333" />
    <rect
       style="opacity:1;vector-effect:none;fill:#d3bc5f;fill-opacity:1;stroke:none;stroke-width:0.79374999;stroke-linecap:round;stroke-linejoin:round;stroke-miterlimit:4;stroke-dasharray:none;stroke-dashoffset:0;stroke-opacity:1"
       id="rect1106"
       width="15.240001"
       height="15.240001"
       x="102.44668"
       y="280.91333" />
    <rect
       y="280.91333"
       x="119.38"
       height="15.240001"
       width="15.240001"
       id="rect1108"
       style="opacity:1;vector-effect:none;fill:#a0892c;fill-opacity:1;stroke:none;stroke-width:0.79374999;stroke-linecap:round;stroke-linejoin:round;stroke-miterlimit:4;stroke-dasharray:none;stroke-dashoffset:0;stroke-opacity:1" />
    <rect
       y="263.97998"
       x="0.84666669"
       height="15.240001"
       width="15.240001"
       id="rect1110"
       style="opacity:1;vector-effect:none;fill:#a0892c;fill-opacity:1;stroke:none;stroke-width:0.79374999;stroke-linecap:round;stroke-linejoin:round;stroke-miterlimit:4;stroke-dasharray:none;stroke-dashoffset:0;stroke-opacity:1" />
    <rect
       style="opacity:1;vector-effect:none;fill:#d3bc5f;fill-opacity:1;stroke:none;stroke-width:0.79374999;stroke-linecap:round;stroke-linejoin:round;stroke-miterlimit:4;stroke-dasharray:none;stroke-dashoffset:0;stroke-opacity:1"
       id="rect1112"
       width="15.240001"
       height="15.240001"
       x="17.780001"
       y="263.97998" />
    <rect
       style="opacity:1;vector-effect:none;fill:#a0892c;fill-opacity:1;stroke:none;stroke-width:0.79374999;stroke-linecap:round;stroke-linejoin:round;stroke-miterlimit:4;stroke-dasharray:none;stroke-dashoffset:0;stroke-opacity:1"
       id="rect1114"
       width="15.240001"
       height="15.240001"
       x="34.713337"
       y="263.97998" />
    <rect
       y="263.97998"
       x="51.646671"
       height="15.240001"
       width="15.240001"
       id="rect1116"
       style="opacity:1;vector-effect:none;fill:#d3bc5f;fill-opacity:1;stroke:none;stroke-width:0.79374999;stroke-linecap:round;stroke-linejoin:round;stroke-miterlimit:4;stroke-dasharray:none;stroke-dashoffset:0;stroke-opacity:1" />
    <rect
       style="opacity:1;vector-effect:none;fill:#a0892c;fill-opacity:1;stroke:none;stroke-width:0.79374999;stroke-linecap:round;stroke-linejoin:round;stroke-miterlimit:4;stroke-dasharray:none;stroke-dashoffset:0;stroke-opacity:1"
       id="rect1118"
       width="15.240001"
       height="15.240001"
       x="68.580002"
       y="263.97998" />
    <rect
       y="263.97998"
       x="85.513336"
       height="15.240001"
       width="15.240001"
       id="rect1120"
       style="opacity:1;vector-effect:none;fill:#d3bc5f;fill-opacity:1;stroke:none;stroke-width:0.79374999;stroke-linecap:round;stroke-linejoin:round;stroke-miterlimit:4;stroke-dasharray:none;stroke-dashoffset:0;stroke-opacity:1" />
    <rect
       y="263.97998"
       x="102.44668"
       height="15.240001"
       width="15.240001"
       id="rect1122"
       style="opacity:1;vector-effect:none;fill:#a0892c;fill-opacity:1;stroke:none;stroke-width:0.79374999;stroke-linecap:round;stroke-linejoin:round;stroke-miterlimit:4;stroke-dasharray:none;stroke-dashoffset:0;stroke-opacity:1" />
    <rect
       style="opacity:1;vector-effect:none;fill:#d3bc5f;fill-opacity:1;stroke:none;stroke-width:0.79374999;stroke-linecap:round;stroke-linejoin:round;stroke-miterlimit:4;stroke-dasharray:none;stroke-dashoffset:0;stroke-opacity:1"
       id="rect1124"
       width="15.240001"
       height="15.240001"
       x="119.38"
       y="263.97998" />
    <rect
       style="opacity:1;vector-effect:none;fill:#d3bc5f;fill-opacity:1;stroke:none;stroke-width:0.79374999;stroke-linecap:round;stroke-linejoin:round;stroke-miterlimit:4;stroke-dasharray:none;stroke-dashoffset:0;stroke-opacity:1"
       id="rect1126"
       width="15.240001"
       height="15.240001"
       x="0.84666669"
       y="247.04662" />
    <rect
       y="247.04662"
       x="17.780001"
       height="15.240001"
       width="15.240001"
       id="rect1128"
       style="opacity:1;vector-effect:none;fill:#a0892c;fill-opacity:1;stroke:none;stroke-width:0.79374999;stroke-linecap:round;stroke-linejoin:round;stroke-miterlimit:4;stroke-dasharray:none;stroke-dashoffset:0;stroke-opacity:1" />
    <rect
       y="247.04662"
       x="34.713337"
       height="15.240001"
       width="15.240001"
       id="rect1130"
       style="opacity:1;vector-effect:none;fill:#d3bc5f;fill-opacity:1;stroke:none;stroke-width:0.79374999;stroke-linecap:round;stroke-linejoin:round;stroke-miterlimit:4;stroke-dasharray:none;stroke-dashoffset:0;stroke-opacity:1" />
    <rect
       style="opacity:1;vector-effect:none;fill:#a0892c;fill-opacity:1;stroke:none;stroke-width:0.79374999;stroke-linecap:round;stroke-linejoin:round;stroke-miterlimit:4;stroke-dasharray:none;stroke-dashoffset:0;stroke-opacity:1"
       id="rect1132"
       width="15.240001"
       height="15.240001"
       x="51.646671"
       y="247.04662" />
    <rect
       y="247.04662"
       x="68.580002"
       height="15.240001"
       width="15.240001"
       id="rect1134"
       style="opacity:1;vector-effect:none;fill:#d3bc5f;fill-opacity:1;stroke:none;stroke-width:0.79374999;stroke-linecap:round;stroke-linejoin:round;stroke-miterlimit:4;stroke-dasharray:none;stroke-dashoffset:0;stroke-opacity:1" />
    <rect
       style="opacity:1;vector-effect:none;fill:#a0892c;fill-opacity:1;stroke:none;stroke-width:0.79374999;stroke-linecap:round;stroke-linejoin:round;stroke-miterlimit:4;stroke-dasharray:none;stroke-dashoffset:0;stroke-opacity:1"
       id="rect1136"
       width="15.240001"
       height="15.240001"
       x="85.513336"
       y="247.04662" />
    <rect
       style="opacity:1;vector-effect:none;fill:#d3bc5f;fill-opacity:1;stroke:none;stroke-width:0.79374999;stroke-linecap:round;stroke-linejoin:round;stroke-miterlimit:4;stroke-dasharray:none;stroke-dashoffset:0;stroke-opacity:1"
       id="rect1138"
       width="15.240001"
       height="15.240001"
       x="102.44668"
       y="247.04662" />
    <rect
       y="247.04662"
       x="119.38"
       height="15.240001"
       width="15.240001"
       id="rect1140"
       style="opacity:1;vector-effect:none;fill:#a0892c;fill-opacity:1;stroke:none;stroke-width:0.79374999;stroke-linecap:round;stroke-linejoin:round;stroke-miterlimit:4;stroke-dasharray:none;stroke-dashoffset:0;stroke-opacity:1" />
    <rect
       y="230.11327"
       x="0.84666669"
       height="15.240001"
       width="15.240001"
       id="rect1142"
       style="opacity:1;vector-effect:none;fill:#a0892c;fill-opacity:1;stroke:none;stroke-width:0.79374999;stroke-linecap:round;stroke-linejoin:round;stroke-miterlimit:4;stroke-dasharray:none;stroke-dashoffset:0;stroke-opacity:1" />
    <rect
       style="opacity:1;vector-effect:none;fill:#d3bc5f;fill-opacity:1;stroke:none;stroke-width:0.79374999;stroke-linecap:round;stroke-linejoin:round;stroke-miterlimit:4;stroke-dasharray:none;stroke-dashoffset:0;stroke-opacity:1"
       id="rect1144"
       width="15.240001"
       height="15.240001"
       x="17.780001"
       y="230.11327" />
    <rect
       style="opacity:1;vector-effect:none;fill:#a0892c;fill-opacity:1;stroke:none;stroke-width:0.79374999;stroke-linecap:round;stroke-linejoin:round;stroke-miterlimit:4;stroke-dasharray:none;stroke-dashoffset:0;stroke-opacity:1"
       id="rect1146"
       width="15.240001"
       height="15.240001"
       x="34.713337"
       y="230.11327" />
    <rect
       y="230.11327"
       x="51.646671"
       height="15.240001"
       width="15.240001"
       id="rect1148"
       style="opacity:1;vector-effect:none;fill:#d3bc5f;fill-opacity:1;stroke:none;stroke-width:0.79374999;stroke-linecap:round;stroke-linejoin:round;stroke-miterlimit:4;stroke-dasharray:none;stroke-dashoffset:0;stroke-opacity:1" />
    <rect
       style="opacity:1;vector-effect:none;fill:#a0892c;fill-opacity:1;stroke:none;stroke-width:0.79374999;stroke-linecap:round;stroke-linejoin:round;stroke-miterlimit:4;stroke-dasharray:none;stroke-dashoffset:0;stroke-opacity:1"
       id="rect1150"
       width="15.240001"
       height="15.240001"
       x="68.580002"
       y="230.11327" />
    <rect
       y="230.11327"
       x="85.513336"
       height="15.240001"
       width="15.240001"
       id="rect1152"
       style="opacity:1;vector-effect:none;fill:#d3bc5f;fill-opacity:1;stroke:none;stroke-width:0.79374999;stroke-linecap:round;stroke-linejoin:round;stroke-miterlimit:4;stroke-dasharray:none;stroke-dashoffset:0;stroke-opacity:1" />
    <rect
       y="230.11327"
       x="102.44668"
       height="15.240001"
       width="15.240001"
       id="rect1154"
       style="opacity:1;vector-effect:none;fill:#a0892c;fill-opacity:1;stroke:none;stroke-width:0.79374999;stroke-linecap:round;stroke-linejoin:round;stroke-miterlimit:4;stroke-dasharray:none;stroke-dashoffset:0;stroke-opacity:1" />
    <rect
       style="opacity:1;vector-effect:none;fill:#d3bc5f;fill-opacity:1;stroke:none;stroke-width:0.79374999;stroke-linecap:round;stroke-linejoin:round;stroke-miterlimit:4;stroke-dasharray:none;stroke-dashoffset:0;stroke-opacity:1"
       id="rect1156"
       width="15.240001"
       height="15.240001"
       x="119.38"
       y="230.11327" />
    <rect
       style="opacity:1;vector-effect:none;fill:#d3bc5f;fill-opacity:1;stroke:none;stroke-width:0.79374999;stroke-linecap:round;stroke-linejoin:round;stroke-miterlimit:4;stroke-dasharray:none;stroke-dashoffset:0;stroke-opacity:1"
       id="rect1158"
       width="15.240001"
       height="15.240001"
       x="0.84666669"
       y="213.17993" />
    <rect
       y="213.17993"
       x="17.780001"
       height="15.240001"
       width="15.240001"
       id="rect1160"
       style="opacity:1;vector-effect:none;fill:#a0892c;fill-opacity:1;stroke:none;stroke-width:0.79374999;stroke-linecap:round;stroke-linejoin:round;stroke-miterlimit:4;stroke-dasharray:none;stroke-dashoffset:0;stroke-opacity:1" />
    <rect
       y="213.17993"
       x="34.713337"
       height="15.240001"
       width="15.240001"
       id="rect1162"
       style="opacity:1;vector-effect:none;fill:#d3bc5f;fill-opacity:1;stroke:none;stroke-width:0.79374999;stroke-linecap:round;stroke-linejoin:round;stroke-miterlimit:4;stroke-dasharray:none;stroke-dashoffset:0;stroke-opacity:1" />
    <rect
       style="opacity:1;vector-effect:none;fill:#a0892c;fill-opacity:1;stroke:none;stroke-width:0.79374999;stroke-linecap:round;stroke-linejoin:round;stroke-miterlimit:4;stroke-dasharray:none;stroke-dashoffset:0;stroke-opacity:1"
       id="rect1164"
       width="15.240001"
       height="15.240001"
       x="51.646671"
       y="213.17993" />
    <rect
       y="213.17993"
       x="68.580002"
       height="15.240001"
       width="15.240001"
       id="rect1166"
       style="opacity:1;vector-effect:none;fill:#d3bc5f;fill-opacity:1;stroke:none;stroke-width:0.79374999;stroke-linecap:round;stroke-linejoin:round;stroke-miterlimit:4;stroke-dasharray:none;stroke-dashoffset:0;stroke-opacity:1" />
    <rect
       style="opacity:1;vector-effect:none;fill:#a0892c;fill-opacity:1;stroke:none;stroke-width:0.79374999;stroke-linecap:round;stroke-linejoin:round;stroke-miterlimit:4;stroke-dasharray:none;stroke-dashoffset:0;stroke-opacity:1"
       id="rect1168"
       width="15.240001"
       height="15.240001"
       x="85.513336"
       y="213.17993" />
    <rect
       style="opacity:1;vector-effect:none;fill:#d3bc5f;fill-opacity:1;stroke:none;stroke-width:0.79374999;stroke-linecap:round;stroke-linejoin:round;stroke-miterlimit:4;stroke-dasharray:none;stroke-dashoffset:0;stroke-opacity:1"
       id="rect1170"
       width="15.240001"
       height="15.240001"
       x="102.44668"
       y="213.17993" />
    <rect
       y="213.17993"
       x="119.38"
       height="15.240001"
       width="15.240001"
       id="rect1172"
       style="opacity:1;vector-effect:none;fill:#a0892c;fill-opacity:1;stroke:none;stroke-width:0.79374999;stroke-linecap:round;stroke-linejoin:round;stroke-miterlimit:4;stroke-dasharray:none;stroke-dashoffset:0;stroke-opacity:1" />
    <rect
       y="196.2466"
       x="0.84666669"
       height="15.240001"
       width="15.240001"
       id="rect1174"
       style="opacity:1;vector-effect:none;fill:#a0892c;fill-opacity:1;stroke:none;stroke-width:0.79374999;stroke-linecap:round;stroke-linejoin:round;stroke-miterlimit:4;stroke-dasharray:none;stroke-dashoffset:0;stroke-opacity:1" />
    <rect
       style="opacity:1;vector-effect:none;fill:#d3bc5f;fill-opacity:1;stroke:none;stroke-width:0.79374999;stroke-linecap:round;stroke-linejoin:round;stroke-miterlimit:4;stroke-dasharray:none;stroke-dashoffset:0;stroke-opacity:1"
       id="rect1176"
       width="15.240001"
       height="15.240001"
       x="17.780001"
       y="196.2466" />
    <rect
       style="opacity:1;vector-effect:none;fill:#a0892c;fill-opacity:1;stroke:none;stroke-width:0.79374999;stroke-linecap:round;stroke-linejoin:round;stroke-miterlimit:4;stroke-dasharray:none;stroke-dashoffset:0;stroke-opacity:1"
       id="rect1178"
       width="15.240001"
       height="15.240001"
       x="34.713337"
       y="196.2466" />
    <rect
       y="196.2466"
       x="51.646671"
       height="15.240001"
       width="15.240001"
       id="rect1180"
       style="opacity:1;vector-effect:none;fill:#d3bc5f;fill-opacity:1;stroke:none;stroke-width:0.79374999;stroke-linecap:round;stroke-linejoin:round;stroke-miterlimit:4;stroke-dasharray:none;stroke-dashoffset:0;stroke-opacity:1" />
    <rect
       style="opacity:1;vector-effect:none;fill:#a0892c;fill-opacity:1;stroke:none;stroke-width:0.79374999;stroke-linecap:round;stroke-linejoin:round;stroke-miterlimit:4;stroke-dasharray:none;stroke-dashoffset:0;stroke-opacity:1"
       id="rect1182"
       width="15.240001"
       height="15.240001"
       x="68.580002"
       y="196.2466" />
    <rect
       y="196.2466"
       x="85.513336"
       height="15.240001"
       width="15.240001"
       id="rect1184"
       style="opacity:1;vector-effect:none;fill:#d3bc5f;fill-opacity:1;stroke:none;stroke-width:0.79374999;stroke-linecap:round;stroke-linejoin:round;stroke-miterlimit:4;stroke-dasharray:none;stroke-dashoffset:0;stroke-opacity:1" />
    <rect
       y="196.2466"
       x="102.44668"
       height="15.240001"
       width="15.240001"
       id="rect1186"
       style="opacity:1;vector-effect:none;fill:#a0892c;fill-opacity:1;stroke:none;stroke-width:0.79374999;stroke-linecap:round;stroke-linejoin:round;stroke-miterlimit:4;stroke-dasharray:none;stroke-dashoffset:0;stroke-opacity:1" />
    <rect
       style="opacity:1;vector-effect:none;fill:#d3bc5f;fill-opacity:1;stroke:none;stroke-width:0.79374999;stroke-linecap:round;stroke-linejoin:round;stroke-miterlimit:4;stroke-dasharray:none;stroke-dashoffset:0;stroke-opacity:1"
       id="rect1188"
       width="15.240001"
       height="15.240001"
       x="119.38"
       y="196.2466" />
    <rect
       style="opacity:1;vector-effect:none;fill:#d3bc5f;fill-opacity:1;stroke:none;stroke-width:0.79374999;stroke-linecap:round;stroke-linejoin:round;stroke-miterlimit:4;stroke-dasharray:none;stroke-dashoffset:0;stroke-opacity:1"
       id="rect1190"
       width="15.240001"
       height="15.240001"
       x="0.84666669"
       y="179.31326" />
    <rect
       y="179.31326"
       x="17.780001"
       height="15.240001"
       width="15.240001"
       id="rect1192"
       style="opacity:1;vector-effect:none;fill:#a0892c;fill-opacity:1;stroke:none;stroke-width:0.79374999;stroke-linecap:round;stroke-linejoin:round;stroke-miterlimit:4;stroke-dasharray:none;stroke-dashoffset:0;stroke-opacity:1" />
    <rect
       y="179.31326"
       x="34.713337"
       height="15.240001"
       width="15.240001"
       id="rect1194"
       style="opacity:1;vector-effect:none;fill:#d3bc5f;fill-opacity:1;stroke:none;stroke-width:0.79374999;stroke-linecap:round;stroke-linejoin:round;stroke-miterlimit:4;stroke-dasharray:none;stroke-dashoffset:0;stroke-opacity:1" />
    <rect
       style="opacity:1;vector-effect:none;fill:#a0892c;fill-opacity:1;stroke:none;stroke-width:0.79374999;stroke-linecap:round;stroke-linejoin:round;stroke-miterlimit:4;stroke-dasharray:none;stroke-dashoffset:0;stroke-opacity:1"
       id="rect1196"
       width="15.240001"
       height="15.240001"
       x="51.646671"
       y="179.31326" />
    <rect
       y="179.31326"
       x="68.580002"
       height="15.240001"
       width="15.240001"
       id="rect1198"
       style="opacity:1;vector-effect:none;fill:#d3bc5f;fill-opacity:1;stroke:none;stroke-width:0.79374999;stroke-linecap:round;stroke-linejoin:round;stroke-miterlimit:4;stroke-dasharray:none;stroke-dashoffset:0;stroke-opacity:1" />
    <rect
       style="opacity:1;vector-effect:none;fill:#a0892c;fill-opacity:1;stroke:none;stroke-width:0.79374999;stroke-linecap:round;stroke-linejoin:round;stroke-miterlimit:4;stroke-dasharray:none;stroke-dashoffset:0;stroke-opacity:1"
       id="rect1200"
       width="15.240001"
       height="15.240001"
       x="85.513336"
       y="179.31326" />
    <rect
       style="opacity:1;vector-effect:none;fill:#d3bc5f;fill-opacity:1;stroke:none;stroke-width:0.79374999;stroke-linecap:round;stroke-linejoin:round;stroke-miterlimit:4;stroke-dasharray:none;stroke-dashoffset:0;stroke-opacity:1"
       id="rect1202"
       width="15.240001"
       height="15.240001"
       x="102.44668"
       y="179.31326" />
    <rect
       y="179.31326"
       x="119.38"
       height="15.240001"
       width="15.240001"
       id="rect1204"
       style="opacity:1;vector-effect:none;fill:#a0892c;fill-opacity:1;stroke:none;stroke-width:0.79374999;stroke-linecap:round;stroke-linejoin:round;stroke-miterlimit:4;stroke-dasharray:none;stroke-dashoffset:0;stroke-opacity:1" />
    <rect
       y="162.37993"
       x="0.84666669"
       height="15.240001"
       width="15.240001"
       id="rect1206"
       style="opacity:1;vector-effect:none;fill:#a0892c;fill-opacity:1;stroke:none;stroke-width:0.79374999;stroke-linecap:round;stroke-linejoin:round;stroke-miterlimit:4;stroke-dasharray:none;stroke-dashoffset:0;stroke-opacity:1" />
    <rect
       style="opacity:1;vector-effect:none;fill:#d3bc5f;fill-opacity:1;stroke:none;stroke-width:0.79374999;stroke-linecap:round;stroke-linejoin:round;stroke-miterlimit:4;stroke-dasharray:none;stroke-dashoffset:0;stroke-opacity:1"
       id="rect1208"
       width="15.240001"
       height="15.240001"
       x="17.780001"
       y="162.37993" />
    <rect
       style="opacity:1;vector-effect:none;fill:#a0892c;fill-opacity:1;stroke:none;stroke-width:0.79374999;stroke-linecap:round;stroke-linejoin:round;stroke-miterlimit:4;stroke-dasharray:none;stroke-dashoffset:0;stroke-opacity:1"
       id="rect1210"
       width="15.240001"
       height="15.240001"
       x="34.713337"
       y="162.37993" />
    <rect
       y="162.37993"
       x="51.646671"
       height="15.240001"
       width="15.240001"
       id="rect1212"
       style="opacity:1;vector-effect:none;fill:#d3bc5f;fill-opacity:1;stroke:none;stroke-width:0.79374999;stroke-linecap:round;stroke-linejoin:round;stroke-miterlimit:4;stroke-dasharray:none;stroke-dashoffset:0;stroke-opacity:1" />
    <rect
       style="opacity:1;vector-effect:none;fill:#a0892c;fill-opacity:1;stroke:none;stroke-width:0.79374999;stroke-linecap:round;stroke-linejoin:round;stroke-miterlimit:4;stroke-dasharray:none;stroke-dashoffset:0;stroke-opacity:1"
       id="rect1214"
       width="15.240001"
       height="15.240001"
       x="68.580002"
       y="162.37993" />
    <rect
       y="162.37993"
       x="85.513336"
       height="15.240001"
       width="15.240001"
       id="rect1216"
       style="opacity:1;vector-effect:none;fill:#d3bc5f;fill-opacity:1;stroke:none;stroke-width:0.79374999;stroke-linecap:round;stroke-linejoin:round;stroke-miterlimit:4;stroke-dasharray:none;stroke-dashoffset:0;stroke-opacity:1" />
    <rect
       y="162.37993"
       x="102.44668"
       height="15.240001"
       width="15.240001"
       id="rect1218"
       style="opacity:1;vector-effect:none;fill:#a0892c;fill-opacity:1;stroke:none;stroke-width:0.79374999;stroke-linecap:round;stroke-linejoin:round;stroke-miterlimit:4;stroke-dasharray:none;stroke-dashoffset:0;stroke-opacity:1" />
    <rect
       style="opacity:1;vector-effect:none;fill:#d3bc5f;fill-opacity:1;stroke:none;stroke-width:0.79374999;stroke-linecap:round;stroke-linejoin:round;stroke-miterlimit:4;stroke-dasharray:none;stroke-dashoffset:0;stroke-opacity:1"
       id="rect1220"
       width="15.240001"
       height="15.240001"
       x="119.38"
       y="162.37993" />
  </g>
  <g
     inkscape:groupmode="layer"
     id="layer2"
     inkscape:label="sprites"
     style="display:inline"
     transform="translate(0,-161.53331)">
    <path
       sodipodi:nodetypes="scccccscs"
       inkscape:connector-curvature="0"
       d="m 32.875246,220.85478 c 0.366285,-1.23889 0.183142,-1.04006 -1.281999,-1.82251 -1.46514,-0.78244 -1.014579,0.0652 -1.014579,0.0652 h -5.178665 -5.161961 c 0,0 0.433856,-0.84766 -1.031286,-0.0652 -1.465141,0.78245 -1.648284,0.58362 -1.281999,1.82251 0.366286,1.23888 4.79825,2.04538 7.475245,2.04538 2.676995,0 7.108958,-0.8065 7.475244,-2.04538 z"
       style="fill:#ffffff;stroke:#aa8800;stroke-width:0.52916666;stroke-linecap:round;stroke-linejoin:round;stroke-miterlimit:4;stroke-dasharray:none"
       id="path992" />
    <path
       id="path816"
       style="fill:#ffffff;stroke:none;stroke-width:0.26458332px;stroke-linecap:butt;stroke-linejoin:miter;stroke-opacity:1"
       d="m 4.0605666,261.23063 c -12.195772,-13.96167 14.1272294,-24.06043 11.9198504,0 0,0 -7.6154594,3.09034 -11.9198504,0 z"
       inkscape:connector-curvature="0"
       sodipodi:nodetypes="ccc" />
    <path
       style="fill:#ffffff;stroke:none;stroke-width:0.26458332px;stroke-linecap:butt;stroke-linejoin:miter;stroke-opacity:1"
       d="m 62.2042,255.8407 c -4.369691,-1.46167 -9.119897,-2.60568 -10.857021,-7.99076 -0.246945,5.35965 1.89568,18.07095 15.824328,12.04981 0.447667,-0.65942 -3.835028,-3.68029 -4.967307,-4.05905 z"
       id="path818"
       inkscape:connector-curvature="0"
       sodipodi:nodetypes="sccs" />
    <path
       style="fill:none;stroke:#6c5d53;stroke-width:1.71979165;stroke-linecap:round;stroke-linejoin:round;stroke-miterlimit:4;stroke-dasharray:none;stroke-opacity:1"
       d="m 32.474578,258.06911 c -1.431125,-5.65042 -10.522967,-8.64183 -14.142869,-5.56733"
       id="path848"
       inkscape:connector-curvature="0"
       sodipodi:nodetypes="cc" />
    <path
       id="path852"
       style="opacity:1;vector-effect:none;fill:none;fill-opacity:1;stroke:#6c5d53;stroke-width:1.71979165;stroke-linecap:round;stroke-linejoin:round;stroke-miterlimit:4;stroke-dasharray:none;stroke-dashoffset:0;stroke-opacity:1"
       d="m 35.267769,255.71258 c 2.292754,-0.43045 9.396736,0.55178 14.143184,2.5204 -0.191919,-2.3683 -3.076518,-6.7763 -5.915269,-7.13109"
       inkscape:connector-curvature="0"
       sodipodi:nodetypes="ccc" />
    <g
       id="g1226"
       transform="translate(-93.53965,111.62576)">
      <ellipse
         ry="6.0948663"
         rx="4.6774554"
         cy="126.10751"
         cx="102.00632"
         id="path821"
         style="opacity:1;vector-effect:none;fill:#2c89a0;fill-opacity:1;stroke:#216778;stroke-width:0.52916664;stroke-linecap:butt;stroke-linejoin:round;stroke-miterlimit:4;stroke-dasharray:none;stroke-dashoffset:0;stroke-opacity:1" />
      <ellipse
         style="opacity:1;vector-effect:none;fill:#483e37;fill-opacity:1;stroke:none;stroke-width:0.52916664;stroke-linecap:butt;stroke-linejoin:round;stroke-miterlimit:4;stroke-dasharray:none;stroke-dashoffset:0;stroke-opacity:1"
         id="ellipse842"
         cx="102.00632"
         cy="126.10751"
         rx="2.1024926"
         ry="2.7813864" />
      <ellipse
         transform="rotate(-31.985885)"
         ry="1.0904596"
         rx="0.76973623"
         cy="158.28375"
         cx="19.402107"
         id="path871"
         style="opacity:1;vector-effect:none;fill:#f2f2f2;fill-opacity:1;stroke:none;stroke-width:1.71979165;stroke-linecap:round;stroke-linejoin:round;stroke-miterlimit:4;stroke-dasharray:none;stroke-dashoffset:0;stroke-opacity:1" />
    </g>
    <g
       id="g1233"
       transform="translate(-90.437515,111.62576)">
      <ellipse
         ry="6.0948663"
         rx="4.6774554"
         cy="126.10751"
         cx="115.83752"
         id="ellipse927"
         style="opacity:1;vector-effect:none;fill:#2c89a0;fill-opacity:1;stroke:none;stroke-width:0.52916664;stroke-linecap:butt;stroke-linejoin:round;stroke-miterlimit:4;stroke-dasharray:none;stroke-dashoffset:0;stroke-opacity:1" />
      <ellipse
         ry="2.7813864"
         rx="2.1024926"
         cy="126.10751"
         cx="115.83752"
         id="ellipse880"
         style="opacity:1;vector-effect:none;fill:#483e37;fill-opacity:1;stroke:none;stroke-width:0.52916664;stroke-linecap:butt;stroke-linejoin:round;stroke-miterlimit:4;stroke-dasharray:none;stroke-dashoffset:0;stroke-opacity:1" />
      <ellipse
         style="opacity:1;vector-effect:none;fill:#f2f2f2;fill-opacity:1;stroke:none;stroke-width:1.74290907;stroke-linecap:round;stroke-linejoin:round;stroke-miterlimit:4;stroke-dasharray:none;stroke-dashoffset:0;stroke-opacity:1"
         id="ellipse882"
         cx="114.16724"
         cy="99.699654"
         rx="1.3304996"
         ry="1.6866115"
         transform="matrix(0.97914508,0.20316228,0.02548965,0.99967509,0,0)" />
      <path
         transform="scale(0.26458333)"
         id="path886"
         d="m 437.58594,461.375 a 15.846769,22.854702 0 0 0 -15.84766,22.85547 15.846769,22.854702 0 0 0 0.0879,2.17578 17.678572,23.035715 0 0 0 15.98438,13.25586 17.678572,23.035715 0 0 0 15.39453,-11.73633 15.846769,22.854702 0 0 0 0.22656,-3.69531 15.846769,22.854702 0 0 0 -15.8457,-22.85547 z"
         style="opacity:1;vector-effect:none;fill:url(#radialGradient912);fill-opacity:1;stroke:none;stroke-width:6.5;stroke-linecap:round;stroke-linejoin:round;stroke-miterlimit:4;stroke-dasharray:none;stroke-dashoffset:0;stroke-opacity:1"
         inkscape:connector-curvature="0" />
      <ellipse
         style="opacity:1;vector-effect:none;fill:none;fill-opacity:1;stroke:#216778;stroke-width:0.52916664;stroke-linecap:butt;stroke-linejoin:round;stroke-miterlimit:4;stroke-dasharray:none;stroke-dashoffset:0;stroke-opacity:1"
         id="ellipse878"
         cx="115.83752"
         cy="126.10751"
         rx="4.6774554"
         ry="6.0948663" />
    </g>
    <ellipse
       style="opacity:1;vector-effect:none;fill:none;fill-opacity:1;stroke:none;stroke-width:1.71979165;stroke-linecap:round;stroke-linejoin:round;stroke-miterlimit:4;stroke-dasharray:none;stroke-dashoffset:0;stroke-opacity:1"
       id="path931"
       cx="130.33092"
       cy="132.91109"
       rx="8.0083704"
       ry="1.3701636" />
    <path
       id="path938"
       style="opacity:1;vector-effect:none;fill:#006680;fill-opacity:1;stroke:none;stroke-width:1.71979165;stroke-linecap:round;stroke-linejoin:round;stroke-miterlimit:4;stroke-dasharray:none;stroke-dashoffset:0;stroke-opacity:1"
       d="m 41.567486,237.73774 c 4.1e-4,-2.44634 0.28008,-4.77029 0.76585,-6.36387 v 12.71879 c -0.48515,-1.59153 -0.76476,-3.9117 -0.76585,-6.35492 z m 1.5317,0 c -4.1e-4,-2.44634 -0.28008,-4.77029 -0.76585,-6.36387 v 12.71879 c 0.48515,-1.59153 0.76476,-3.9117 0.76585,-6.35492 z"
       inkscape:connector-curvature="0"
       sodipodi:nodetypes="cccccccc" />
    <path
       style="fill:#6c5d53;stroke:none;stroke-width:0.26458332px;stroke-linecap:butt;stroke-linejoin:miter;stroke-opacity:1"
       d="m 32.053486,194.09501 c 0,-2.54127 -2.587467,-4.29705 -4.666681,-4.7129 -2.079214,-0.41584 -4.712885,0.0462 -8.640288,-9.61059 2.125415,8.13204 7.392761,14.13867 13.306969,14.32349 z"
       id="path941"
       inkscape:connector-curvature="0"
       sodipodi:nodetypes="cscc" />
    <path
       style="fill:none;fill-opacity:1;stroke:#006680;stroke-width:0.39687499;stroke-linecap:round;stroke-linejoin:round;stroke-miterlimit:4;stroke-dasharray:none;stroke-opacity:1"
       d="m 58.702568,238.45063 c 0.4267,-0.89884 -0.52931,-3.25932 1.18311,-2.87337 0.2565,0.30334 1.2315,1.0894 0.3313,0.67647 -1.17957,0.45955 -1.47147,1.93318 -1.51415,3.05353 -0.5213,0.92814 0.4653,3.1342 0.98102,1.25373 -0.10744,-1.17796 0.55339,-2.79077 -0.55666,-3.61109 -1.63316,-0.55349 -1.12032,1.94556 -1.21925,2.88481 -0.13082,1.76377 2.39528,2.19461 2.94499,0.53554 0.44827,-0.55625 0.11574,-2.72757 -0.74805,-1.90671 0.0957,0.94604 -0.75802,2.56451 0.40002,3.04004 1.19018,-0.21876 0.82088,-1.91632 0.55327,-2.73665 -0.52643,-1.37694 -2.32861,0.20896 -0.91879,0.71522 1.62145,-0.21448 -0.46146,-1.72585 -1.26812,-1.70524 -0.84124,-0.61369 -1.83974,0.58929 -0.53523,0.82424 0.82671,-0.40342 2.13826,-1.17507 2.10968,-2.25447 -0.67941,-1.26118 -2.48529,-0.43877 -3.58931,-0.55565 -1.22042,1.10731 0.83463,2.69977 1.66375,1.20032 0.58427,-0.20045 1.21168,-1.69464 0.49633,-1.5321 -0.55431,0.9105 -0.19713,3.19679 1.20604,2.65937 1.11632,-1.03777 -0.94466,-2.01586 -0.91837,-0.42395 0.0345,0.55745 -0.29434,2.58636 0.52441,2.11294 0.6707,-1.12838 -1.27098,-2.44993 -1.32607,-0.72715 -0.44203,0.94997 0.45939,2.5896 1.37547,1.37315 -0.0526,-0.92301 0.2291,-2.52762 -0.98221,-2.81414 -0.61869,1.0557 0.11084,2.80527 1.31672,3.06425 1.48606,-0.0935 1.16698,-1.94109 0.21584,-2.55565 -0.69026,-0.97168 -1.78962,-0.0275 -0.83657,0.76474 0.31914,1.05097 2.85331,2.39267 2.57299,0.48137 -0.65531,-0.94458 -1.67842,-1.70353 -2.73539,-2.17203 -1.26805,-0.61934 -1.84436,1.30088 -0.3712,1.29661 0.89205,0.1291 2.70506,-0.36274 1.88756,-1.56723 -0.34723,-1.09379 -1.70575,-2.63606 -2.88349,-1.65329 -0.47417,0.92492 -0.74458,2.25521 -0.34176,3.21915 0.85932,0.98912 2.60577,0.0998 2.43144,-1.16175 -0.0375,-1.04814 -0.44894,-2.56596 -1.72474,-2.63281 -1.20255,0.50897 -0.52869,2.2369 -0.21103,3.17429 0.54582,1.40949 2.10702,0.13901 1.41703,-0.96097 0.25666,-0.93063 -1.13661,-2.23415 -1.23054,-0.69278 0.48505,1.25038 -0.0447,2.58436 0.46439,3.76665 0.70736,1.4291 2.14244,0.14405 1.65322,-1.01469 -0.13252,-1.14272 -0.99392,-2.45768 -2.26131,-2.43884 -1.60278,0.51354 -0.69527,2.65646 0.7782,2.50088 1.46187,0.6402 2.37649,-1.08971 1.19414,-2.02666 -1.13601,-1.17678 -1.80303,1.49368 -0.42866,1.5991 1.33673,-0.0484 0.81612,-2.47676 -0.45463,-2.256 -1.45486,0.68071 0.23616,2.11566 1.25379,1.44445 1.09348,-1.22934 -1.45843,-2.29173 -2.5224,-1.82261 -1.35053,0.83649 0.64371,1.68997 1.27883,0.71162 0.82336,-0.62478 1.21345,-2.59692 -0.17983,-2.74431 -1.44063,0.1134 -1.64504,1.99936 -2.34812,2.99246 -0.74288,0.66738 -0.70826,3.1026 0.66384,2.32141 0.58249,-0.71387 1.15555,-2.70499 -0.0336,-2.90694 -1.172,0.58383 0.39079,0.39633 -0.42273,1.35904 -0.48362,0.867 -0.81707,1.88968 -0.58881,2.88344 0.0599,-0.50297 0.2032,-1.9293 1.0451,-1.33554"
       id="path943"
       inkscape:connector-curvature="0"
       sodipodi:nodetypes="ccccccccccccccccccccccccccccccccccccccccccccccccccccccc" />
    <path
       style="opacity:1;vector-effect:none;fill:#006680;fill-opacity:1;stroke:none;stroke-width:0.52916664;stroke-linecap:butt;stroke-linejoin:round;stroke-miterlimit:4;stroke-dasharray:none;stroke-dashoffset:0;stroke-opacity:1"
       d="m 76.199745,234.00687 a 2.8169669,3.7265639 0 0 0 -1.33686,0.4501 1.4610222,1.0313099 58.014115 0 1 -0.17364,1.65882 1.4610222,1.0313099 58.014115 0 1 -1.00252,-0.0558 2.8169669,3.7265639 0 0 0 -0.30386,1.67329 2.8169669,3.7265639 0 0 0 2.81688,3.72638 2.8169669,3.7265639 0 0 0 2.8174,-3.72638 2.8169669,3.7265639 0 0 0 -2.8174,-3.72639 z"
       id="ellipse958"
       inkscape:connector-curvature="0" />
    <g
       id="g1295"
       transform="matrix(0.70697627,0,0,0.69272796,11.551838,118.72692)"
       style="stroke-width:1.42894733">
      <path
         sodipodi:nodetypes="ccccccscsc"
         inkscape:connector-curvature="0"
         d="m 54.111844,148.23093 c 0.518035,-1.83552 0.259017,-4.34727 -1.813125,-5.50653 -2.072139,-1.15926 -2.096372,0.0966 -2.096372,0.0966 -1.702102,0.98271 -4.394553,1.13393 -6.6627,1.13393 -2.403871,0 -5.112316,-0.17062 -6.780816,-1.13393 0,0 0.09388,-1.25588 -1.978254,-0.0966 -2.072142,1.15926 -2.33116,3.67101 -1.813124,5.50653 0.518035,1.83551 6.786138,4.2331 10.572197,4.2331 3.78606,0 10.054163,-2.39759 10.572199,-4.2331 z"
         style="opacity:1;vector-effect:none;fill:#782121;fill-opacity:1;stroke:none;stroke-width:1.42894733;stroke-linecap:butt;stroke-linejoin:miter;stroke-miterlimit:4;stroke-dasharray:none;stroke-dashoffset:0;stroke-opacity:1"
         id="path999" />
      <path
         inkscape:connector-curvature="0"
         transform="scale(0.26458333)"
         id="path996"
         d="m 164.55859,560.19727 a 44.017855,14.821428 0 0 0 -34.57226,5.67578 c 8.24918,5.39707 23.97385,10.36914 34.57226,10.36914 10.60675,0 26.34988,-4.98084 34.59375,-10.38281 a 44.017855,14.821428 0 0 0 -34.59375,-5.66211 z"
         style="opacity:1;vector-effect:none;fill:#de8787;fill-opacity:1;stroke:none;stroke-width:5.40074635;stroke-linecap:butt;stroke-linejoin:miter;stroke-miterlimit:4;stroke-dasharray:none;stroke-dashoffset:0;stroke-opacity:1" />
      <path
         inkscape:connector-curvature="0"
         transform="scale(0.26458333)"
         id="path1001"
         d="m 136.6582,537.57422 c -1.10913,0.01 -2.75572,0.48819 -5.20312,1.85742 -4.3987,2.46085 -6.63525,6.53394 -7.4043,10.86133 11.67556,2.98791 28.52923,4.73633 40.50781,4.73633 11.97917,0 28.83415,-1.74816 40.50977,-4.73633 -0.76905,-4.32739 -3.0056,-8.40048 -7.4043,-10.86133 -7.8317,-4.38145 -7.92383,0.36524 -7.92383,0.36524 -6.43314,3.71417 -16.60911,4.28515 -25.18164,4.28515 -9.08549,0 -19.32081,-0.6443 -25.62695,-4.28515 0,0 0.16666,-2.24424 -2.27344,-2.22266 z"
         style="fill:#ffffff;stroke:none;stroke-width:5.40074539" />
      <path
         id="path976"
         style="opacity:1;vector-effect:none;fill:none;fill-opacity:1;stroke:#aa8800;stroke-width:0.75615129;stroke-linecap:round;stroke-linejoin:round;stroke-miterlimit:4;stroke-dasharray:none;stroke-dashoffset:0;stroke-opacity:1"
         d="m 54.111844,148.23093 c 0.518035,-1.83552 0.259017,-4.34727 -1.813125,-5.50653 -2.072139,-1.15926 -2.096372,0.0966 -2.096372,0.0966 -1.702102,0.98271 -4.394553,1.13393 -6.6627,1.13393 -2.403871,0 -5.112316,-0.17062 -6.780816,-1.13393 0,0 0.09388,-1.25588 -1.978254,-0.0966 -2.072142,1.15926 -2.33116,3.67101 -1.813124,5.50653 0.518035,1.83551 6.786138,4.2331 10.572197,4.2331 3.78606,0 10.054163,-2.39759 10.572199,-4.2331 z"
         inkscape:connector-curvature="0"
         sodipodi:nodetypes="ccccccscsc" />
    </g>
    <path
       style="opacity:1;vector-effect:none;fill:#ffffff;fill-opacity:1;stroke:#aa8800;stroke-width:0.52916666;stroke-linecap:round;stroke-linejoin:round;stroke-miterlimit:4;stroke-dasharray:none;stroke-dashoffset:0;stroke-opacity:1"
       d="m 54.043768,223.90888 c 2.802508,-4.75258 4.798237,-6.18487 6.369339,-6.21741 1.571107,-0.0326 3.779144,2.99477 4.07638,3.54815 -2.038191,-0.0325 -8.959539,1.56249 -10.445719,2.66926 z"
       id="path1007"
       inkscape:connector-curvature="0"
       sodipodi:nodetypes="cccc" />
    <path
       style="opacity:1;vector-effect:none;fill:none;fill-opacity:1;stroke:#a08000;stroke-width:1.05833332;stroke-linecap:round;stroke-linejoin:round;stroke-miterlimit:4;stroke-dasharray:none;stroke-dashoffset:0;stroke-opacity:1"
       d="m 1.6003563,220.41012 c 1.199905,0.8761 11.6990707,1.20151 13.7322447,0"
       id="path1043"
       inkscape:connector-curvature="0" />
    <path
       style="opacity:1;vector-effect:none;fill:none;fill-opacity:1;stroke:#a08000;stroke-width:1.05833332;stroke-linecap:round;stroke-linejoin:round;stroke-miterlimit:4;stroke-dasharray:none;stroke-dashoffset:0;stroke-opacity:1"
       d="m 83.066817,219.88972 c -2.359972,3.58651 -5.373222,0.82994 -6.873197,0.91886 -1.499976,0.0889 -4.166599,2.46017 -6.859907,-0.91886"
       id="path1023"
       inkscape:connector-curvature="0" />
    <g
       id="g1081"
       transform="translate(-79.576638,55.01745)">
      <path
         id="path1053"
         transform="scale(0.26458333)"
         d="m 404.7207,559.32422 a 22.744215,22.238788 0 0 0 -22.74414,22.23828 22.744215,22.238788 0 0 0 0.006,0.17578 c 2.88717,4.53726 8.0007,7.29492 14.7793,7.29492 10.86002,0 17.45117,-7.07506 17.45117,-17.21289 0,-2.91257 -1.28764,-7.10956 -3.14258,-11.5957 a 22.744215,22.238788 0 0 0 -6.34961,-0.90039 z"
         style="opacity:1;vector-effect:none;fill:url(#radialGradient1073);fill-opacity:1;stroke:none;stroke-width:3.77999973;stroke-linecap:round;stroke-linejoin:round;stroke-miterlimit:4;stroke-dasharray:none;stroke-dashoffset:0;stroke-opacity:1"
         inkscape:connector-curvature="0" />
      <ellipse
         ry="2.2230484"
         rx="1.3152801"
         cy="151.08891"
         cx="102.93746"
         id="path1051"
         style="opacity:1;vector-effect:none;fill:#ffffff;fill-opacity:1;stroke:none;stroke-width:1.00012493;stroke-linecap:round;stroke-linejoin:round;stroke-miterlimit:4;stroke-dasharray:none;stroke-dashoffset:0;stroke-opacity:1" />
      <path
         inkscape:connector-curvature="0"
         d="m 104.97664,141.85003 c 0.55794,0 4.61693,6.76163 4.61693,9.44392 0,2.6823 -1.74355,4.55432 -4.61693,4.55432 m 0,-13.99824 c -0.55794,0 -4.61693,6.76163 -4.61693,9.44392 0,2.6823 1.74355,4.55432 4.61693,4.55432"
         style="fill:none;stroke:#ffffff;stroke-width:0.79374999;stroke-linecap:butt;stroke-linejoin:miter;stroke-miterlimit:4;stroke-dasharray:none;stroke-opacity:1"
         id="path1047" />
    </g>
    <path
       id="path1089"
       style="fill:none;fill-opacity:1;stroke:#6c5d53;stroke-width:0.79374999;stroke-linecap:round;stroke-linejoin:round;stroke-miterlimit:4;stroke-dasharray:none;stroke-opacity:1"
       d="m 44.894555,209.06956 c -0.81747,-3.05094 0.10899,-3.81367 2.99718,-3.54127 m -10.62639,1.41651 c 3.37864,-0.49034 4.84999,0.16344 5.23145,2.61509 m 0.32697,-11.38654 c 0.32697,3.05094 0.76292,5.61154 3.9236,5.4481 m -6.70282,-5.12121 c 1.08989,3.26886 0.9809,5.93843 -3.26966,5.23017"
       inkscape:connector-curvature="0" />
    <ellipse
       style="opacity:1;vector-effect:none;fill:#d35f5f;fill-opacity:1;stroke:none;stroke-width:0.79375005;stroke-linecap:round;stroke-linejoin:round;stroke-miterlimit:4;stroke-dasharray:none;stroke-dashoffset:0;stroke-opacity:1"
       id="path1092"
       cx="59.26667"
       cy="203.86661"
       rx="6.5673366"
       ry="4.6148853" />
    <rect
       transform="translate(0,1.1540354e-6)"
       y="280.06665"
       x="0"
       height="16.933334"
       width="16.933334"
       id="rect1269"
       style="display:inline;opacity:1;vector-effect:none;fill:#000000;fill-opacity:0;stroke:none;stroke-width:0.79374999;stroke-linecap:round;stroke-linejoin:round;stroke-miterlimit:4;stroke-dasharray:none;stroke-dashoffset:0;stroke-opacity:1" />
    <rect
       y="280.41031"
       x="17.356667"
       height="13.058542"
       width="16.086668"
       id="rect1272"
       style="display:inline;opacity:1;vector-effect:none;fill:#d4aa00;fill-opacity:1;stroke:none;stroke-width:0.79374999;stroke-linecap:round;stroke-linejoin:round;stroke-miterlimit:4;stroke-dasharray:none;stroke-dashoffset:0;stroke-opacity:1" />
    <rect
       style="display:inline;opacity:1;vector-effect:none;fill:#d4aa00;fill-opacity:1;stroke:none;stroke-width:0.79374999;stroke-linecap:round;stroke-linejoin:round;stroke-miterlimit:4;stroke-dasharray:none;stroke-dashoffset:0;stroke-opacity:1"
       id="rect1289"
       width="16.086668"
       height="13.058542"
       x="17.356667"
       y="-279.72299"
       transform="scale(1,-1)" />
    <path
       transform="translate(0,1.1540354e-6)"
       style="display:inline;opacity:1;vector-effect:none;fill:#d4aa00;fill-opacity:1;stroke:none;stroke-width:0.79374999;stroke-linecap:round;stroke-linejoin:round;stroke-miterlimit:4;stroke-dasharray:none;stroke-dashoffset:0;stroke-opacity:1"
       d="m 34.290003,280.41775 v 12.20786 a 17.54531,10.108593 0 0 0 8.043333,1.13453 17.54531,10.108593 0 0 0 8.043333,-1.12765 v -12.21474 z"
       id="path1275"
       inkscape:connector-curvature="0" />
    <path
       transform="translate(0,1.1540354e-6)"
       style="display:inline;opacity:1;vector-effect:none;fill:#d4aa00;fill-opacity:1;stroke:none;stroke-width:0.79374999;stroke-linecap:round;stroke-linejoin:round;stroke-miterlimit:4;stroke-dasharray:none;stroke-dashoffset:0;stroke-opacity:1"
       d="m 51.223337,280.38668 v 12.15484 a 17.54531,10.108593 0 0 1 8.043333,-1.12766 17.54531,10.108593 0 0 1 8.043333,1.13454 v -12.16172 z"
       id="rect1282"
       inkscape:connector-curvature="0" />
    <path
       transform="translate(0,1.1540354e-6)"
       id="path1285"
       d="m 34.290002,279.71553 v -12.20787 a 17.545311,10.108593 0 0 1 8.043334,-1.13452 17.545311,10.108593 0 0 1 8.043333,1.12766 v 12.21473 z"
       style="display:inline;opacity:1;vector-effect:none;fill:#d4aa00;fill-opacity:1;stroke:none;stroke-width:0.79374999;stroke-linecap:round;stroke-linejoin:round;stroke-miterlimit:4;stroke-dasharray:none;stroke-dashoffset:0;stroke-opacity:1"
       inkscape:connector-curvature="0" />
    <path
       transform="translate(0,1.1540354e-6)"
       id="path1287"
       d="m 51.223337,279.7466 v -12.15485 a 17.545311,10.108593 0 0 0 8.043334,1.12766 17.545311,10.108593 0 0 0 8.043333,-1.13453 v 12.16172 z"
       style="display:inline;opacity:1;vector-effect:none;fill:#d4aa00;fill-opacity:1;stroke:none;stroke-width:0.79374999;stroke-linecap:round;stroke-linejoin:round;stroke-miterlimit:4;stroke-dasharray:none;stroke-dashoffset:0;stroke-opacity:1"
       inkscape:connector-curvature="0" />
  </g>
  <g
     inkscape:groupmode="layer"
     id="layer3"
     inkscape:label="body"
     sodipodi:insensitive="true"
     style="display:none">
    <rect
       transform="translate(0,-161.53331)"
       style="display:inline;opacity:1;vector-effect:none;fill:#d4aa00;fill-opacity:1;stroke:none;stroke-width:0.79374987;stroke-linecap:round;stroke-linejoin:round;stroke-miterlimit:4;stroke-dasharray:none;stroke-dashoffset:0;stroke-opacity:1"
       id="rect1301"
       width="33.866665"
       height="33.866669"
       x="-77.129288"
       y="211.42728"
       inkscape:export-xdpi="96"
       inkscape:export-ydpi="96" />
  </g>
</svg>
